V1-V2_F,AGAGTTTGATCCTGGCTCAG,V1-V2_R,TGCTGCCTCCCGTAGGAGT
V1_F,AGAGTTTGATCMTGGCTCAG,V1_R,TTACTCACCCGTICGCCRCT
V2_F,AGYGGCGIACGGGTGAGTAA,V2_R,CYIACTGCTGCCTCCCGTAG
V3_1_F,ACTYCTACGGRAGGCWGC,V3_1_R,GTGCCAGCMGCCGCGGTAA
V3_2_F,CCTACGGGAGGCAGCAG,V3_2_R,GTATTACCGCGGCTGCTGG
V4_F,GTGCCAGCMGCCGCGGTAA,V4_R,GGACTACHVGGGTWTCTAAT
V5_1_F,ATTAGATACCYTGTAGTCC,V5_1_R,CCGTCAATTCMTTTGAGTTT
V5_2_F,AGGATTAGATACCCT,V5_2_R,CRTACTHCHCAGGYG
V5-V6_F,AGGATTAGATACCCTGGTA,V5-V6_R,CRRCACGAGCTGACGAC
V6_1_F,AAACTCAAAKGAATTGACGG,V6_1_R,ACGAGCTGACGACARCCATG
V6_2_F,CNACGCGAAGAACCTTANC,V6_2_R,CGACAGCCATGCANCACCT
V6_3_F,CAACGCGARGAACCTTACC,V6_3_R,ACAACACGAGCTGACGAC
V7-V8_F,GYAACGAGCGCAACCC,V7-V8_R,GACGGGCGGTGWGTRC
V9_F,GTACACACCGCCCGT,V9_R,TACCTTGTTACGACTT